module unbound-exporter

go 1.19

require (
	github.com/go-kit/log v0.2.1
	github.com/integrii/flaggy v1.5.2
	github.com/prometheus/client_golang v1.14.0
	github.com/prometheus/common v0.39.0
	github.com/sirupsen/logrus v1.9.0
)

require (
	github.com/beorn7/perks v1.0.1 // indirect
	github.com/cespare/xxhash/v2 v2.1.2 // indirect
	github.com/go-logfmt/logfmt v0.5.1 // indirect
	github.com/golang/protobuf v1.5.2 // indirect
	github.com/matttproud/golang_protobuf_extensions v1.0.4 // indirect
	github.com/prometheus/client_model v0.3.0 // indirect
	github.com/prometheus/procfs v0.8.0 // indirect
	golang.org/x/sys v0.3.0 // indirect
	google.golang.org/protobuf v1.28.1 // indirect
)